19,16,19,16,19,16,19,19,19,19,19,19,19,19,19,19,19,19,19,19,19,19,19,19,19,19,19,19,19,19,19,19,19,19,19,19,19,19,19,19,19,19,19,19,19,19,19,19,19,19,19,19,19,19,19,19,19,19,19,19,19,19,19,19,19,19,19,19,19,19,19,19,16,19,16,19,19,19,19,19,19,19,19,19,19,19,19,19,19,19,19,19,19,19,19,19,19,19,19,19
19,17,16,17,16,17,19,19,19,19,19,19,19,19,19,19,19,19,19,19,19,19,19,19,19,19,19,19,19,19,19,19,19,19,19,19,19,19,19,19,19,19,19,19,19,19,19,19,19,19,19,19,19,19,19,19,19,19,19,19,19,19,19,19,19,19,19,19,19,19,19,16,17,16,17,16,19,19,19,19,19,19,19,19,19,19,19,19,19,19,19,19,19,19,19,19,19,19,19,19
19,16,17,16,17,16,19,19,19,19,19,19,19,19,19,19,19,19,19,19,19,19,19,19,19,19,19,19,19,19,19,19,19,19,19,19,19,19,19,19,19,19,19,19,19,19,19,19,19,19,19,19,19,19,19,19,19,19,19,19,19,19,19,19,19,19,19,19,19,19,19,17,16,17,16,17,19,19,19,19,19,19,19,19,19,19,19,19,19,19,19,19,19,19,19,19,19,19,19,19
19,17,16,17,16,17,19,19,19,19,19,19,19,19,19,19,19,19,19,19,19,19,19,19,19,19,19,19,19,19,19,19,19,19,19,19,19,19,19,19,19,19,19,19,19,19,19,19,19,19,19,19,19,19,19,19,19,19,19,19,19,19,19,19,19,19,19,19,19,19,19,16,17,16,17,16,19,19,19,19,19,19,19,19,19,19,19,19,19,19,19,19,19,19,19,19,19,19,19,19
19,16,17,16,17,16,19,19,19,19,19,19,19,19,19,19,19,19,19,19,19,19,19,19,19,19,19,19,19,19,19,19,19,19,19,19,19,19,19,19,19,19,19,19,19,19,19,19,19,19,19,19,19,19,19,19,19,19,19,19,19,19,19,19,19,19,19,19,19,19,19,17,16,17,16,17,19,19,19,19,19,19,19,19,19,19,19,19,19,19,19,19,19,19,19,19,19,19,19,19
19,17,16,17,16,17,19,19,19,19,19,19,19,19,19,19,19,19,19,19,19,19,19,19,19,19,19,19,19,19,19,19,19,19,19,19,19,19,19,19,19,19,19,19,19,19,19,19,19,19,19,19,19,19,19,19,19,19,19,19,19,19,19,19,19,19,19,19,19,19,19,16,17,16,17,16,19,19,19,19,19,19,19,19,19,19,19,19,19,19,19,19,19,19,19,19,19,19,19,19
19,16,17,16,17,16,19,19,19,19,19,19,19,19,19,19,19,19,19,19,19,19,19,19,19,19,19,19,19,19,19,19,19,19,19,19,19,19,19,19,19,19,19,19,19,19,19,19,19,19,19,19,19,19,19,19,19,19,19,19,19,19,19,19,19,19,19,19,19,19,19,17,16,17,16,17,19,19,19,19,19,19,19,19,19,19,19,19,19,19,19,19,19,19,19,19,19,19,19,19
19,17,16,17,16,17,19,19,19,19,19,19,19,19,19,19,19,19,19,19,19,19,19,19,19,19,19,19,19,19,19,19,19,19,19,19,19,19,19,19,19,19,19,19,19,19,19,19,19,19,19,19,19,19,19,19,19,19,19,19,19,19,19,19,19,19,19,19,19,19,19,16,17,16,17,16,19,19,19,19,19,19,19,19,19,19,19,19,19,19,19,19,19,19,19,19,19,19,19,19
19,16,17,16,17,16,19,19,19,19,19,19,19,19,19,19,19,19,19,19,19,19,19,19,19,19,19,19,19,19,19,19,19,19,19,19,19,19,19,19,19,19,19,19,19,19,19,19,19,19,19,19,19,19,19,19,19,19,19,19,19,19,19,19,19,19,19,19,19,19,19,17,16,17,16,17,19,19,19,19,19,19,19,19,19,19,19,19,19,19,19,19,19,19,19,19,19,19,19,19
19,17,16,17,16,17,19,19,19,19,19,19,19,19,19,19,19,19,19,19,19,19,19,20,21,22,19,20,21,22,19,20,21,22,19,19,19,19,19,19,19,19,19,19,19,19,19,19,19,19,19,19,19,19,19,19,19,19,19,19,19,19,19,19,19,19,19,19,19,19,19,16,17,16,17,16,19,19,19,19,19,19,19,19,19,19,19,19,19,19,19,19,19,19,19,19,19,19,19,19
19,16,17,16,17,16,19,19,19,19,19,19,19,19,19,19,19,19,19,19,19,19,19,5,0,6,19,5,0,6,19,5,0,6,19,19,19,19,19,19,19,19,19,19,19,19,19,19,19,19,19,19,19,19,12,12,19,19,19,19,19,19,19,19,19,19,19,19,19,19,19,17,19,17,19,17,19,19,19,19,19,19,19,19,19,19,19,19,19,19,19,19,19,19,19,19,19,19,19,19
19,17,19,17,19,17,19,19,19,19,19,19,19,19,19,19,19,19,19,19,19,19,19,5,3,6,19,5,3,6,19,5,3,6,19,19,19,20,21,22,20,21,22,20,21,22,19,19,19,12,12,19,19,19,12,12,19,19,19,19,19,19,19,19,19,19,19,19,19,19,19,19,19,19,19,19,19,19,19,19,19,19,19,19,19,19,19,19,19,19,19,19,19,19,19,19,19,19,19,19
19,19,19,19,19,19,19,19,19,19,16,16,16,16,16,16,16,16,16,16,19,19,19,5,1,6,19,5,1,6,19,5,1,6,19,19,19,5,0,6,5,0,6,5,0,6,19,19,19,19,12,19,19,19,12,12,19,19,19,19,19,19,19,19,19,19,19,19,19,19,19,19,19,19,19,19,19,19,19,19,19,19,19,16,19,16,19,16,19,19,19,19,19,19,19,19,19,19,19,19
19,19,19,19,19,19,19,19,19,19,17,17,17,17,17,17,17,17,17,17,19,19,19,19,19,19,19,19,19,19,19,19,19,19,19,19,19,5,3,6,5,3,6,5,3,6,19,19,19,19,19,19,19,19,12,12,19,19,19,19,19,19,19,19,19,19,19,19,19,19,19,19,19,19,19,19,19,19,19,19,19,19,19,17,16,17,16,17,19,19,19,19,19,19,19,19,19,19,19,19
19,19,19,19,19,19,19,19,19,19,19,19,19,19,19,19,19,19,19,19,19,19,19,19,19,19,19,19,19,19,19,19,19,19,19,19,19,5,1,6,5,1,6,5,1,6,19,19,19,19,19,19,19,19,19,19,19,19,19,19,19,19,19,19,19,19,19,19,19,19,19,19,19,19,19,19,19,19,19,19,19,19,19,16,17,16,17,16,19,19,19,19,19,19,19,19,19,19,19,19
19,19,19,19,19,19,19,19,19,19,18,18,18,18,18,18,18,18,18,18,19,19,19,19,19,19,19,19,19,19,19,19,19,19,19,19,19,19,19,19,19,19,19,19,19,19,19,19,19,19,19,19,19,19,19,19,19,19,19,19,19,19,19,19,19,19,19,19,19,19,19,19,19,19,19,19,19,19,19,19,19,19,19,17,16,17,16,17,19,19,19,19,19,19,19,19,19,19,19,19
19,19,19,19,19,19,19,19,19,19,19,19,19,19,19,19,19,19,19,19,19,19,19,19,19,19,19,19,19,19,19,19,19,19,19,19,19,18,18,18,18,18,18,18,18,18,19,19,19,19,19,19,19,19,19,19,19,19,19,19,19,19,19,19,19,19,19,19,19,19,19,19,19,19,19,19,19,19,19,19,19,19,19,16,17,16,17,16,19,19,19,19,19,19,19,19,19,19,19,19
19,19,19,19,19,19,19,19,19,19,18,18,18,18,18,18,18,18,18,18,19,19,19,19,19,19,19,19,19,19,19,19,19,19,19,19,19,19,19,19,19,19,19,19,19,19,19,19,12,19,19,19,12,19,19,12,19,19,19,19,19,19,19,19,19,19,19,19,19,19,19,19,19,19,19,19,19,19,19,19,19,19,19,17,16,17,16,17,19,19,19,19,19,19,19,19,19,19,19,19
19,19,19,19,19,19,19,19,19,19,19,19,19,19,19,19,19,19,19,19,19,19,19,19,19,19,19,19,19,19,19,19,19,19,19,19,19,19,19,19,19,19,19,19,19,19,19,19,19,19,19,19,19,19,19,19,19,19,19,19,19,19,19,19,19,19,19,19,19,19,19,19,19,19,19,19,19,19,19,19,19,19,19,16,17,16,17,16,19,19,19,19,19,19,19,19,19,19,19,19
19,19,19,19,19,19,19,19,19,19,19,19,19,19,19,19,19,19,19,19,19,19,19,19,19,19,19,19,19,19,19,19,19,19,19,19,19,19,19,19,19,19,19,19,19,19,19,19,19,19,19,19,19,19,19,19,19,19,19,19,19,19,19,19,20,29,19,19,19,19,19,19,19,19,19,19,19,19,19,19,19,19,19,17,16,17,16,17,19,19,19,19,19,19,19,19,19,19,19,19
19,19,19,19,19,19,19,19,19,19,19,19,19,19,19,19,19,19,19,19,19,19,19,16,19,16,19,16,19,16,19,16,19,16,19,19,19,19,19,19,19,19,19,19,19,19,19,19,19,19,19,19,19,19,19,19,19,19,19,19,19,19,20,21,22,27,28,29,19,19,19,19,19,19,19,19,19,19,19,19,19,19,19,16,17,16,17,16,19,19,19,19,19,19,19,19,19,19,19,19
19,19,19,19,19,19,19,19,19,19,19,19,19,19,19,19,19,19,19,19,19,19,19,17,19,17,19,17,19,17,19,17,19,17,19,19,19,19,19,19,19,19,19,19,19,19,19,19,19,19,19,19,19,19,19,19,19,19,19,19,20,21,22,23,24,25,26,27,28,29,19,19,19,19,19,19,19,19,19,19,19,19,19,17,16,17,16,17,19,19,19,19,19,19,19,19,19,19,19,19
19,19,19,19,19,19,19,19,19,19,19,19,19,19,19,16,19,16,19,16,19,19,19,16,13,16,19,16,13,16,19,16,13,16,19,19,19,19,19,19,19,19,19,19,19,19,19,19,19,19,19,16,19,16,19,16,19,19,19,19,23,24,0,0,0,0,0,0,25,26,19,19,19,19,19,19,19,19,19,19,19,19,19,16,17,16,17,16,19,19,19,19,19,19,19,16,19,16,19,16
19,19,19,19,19,19,19,19,19,19,19,19,19,19,19,16,19,16,19,16,19,19,19,17,19,17,19,17,19,17,19,17,19,17,19,19,19,19,19,19,19,19,16,19,19,19,19,19,19,19,19,17,16,17,16,17,19,19,19,19,5,4,0,4,0,0,4,0,4,6,19,19,19,19,19,19,19,19,19,19,19,19,19,17,19,17,19,17,19,19,19,19,19,19,19,17,16,17,16,17
19,19,19,19,19,19,19,19,19,19,19,19,19,19,19,17,16,17,16,17,19,19,19,16,19,16,19,16,19,16,19,16,19,16,19,19,19,19,19,19,19,19,17,19,19,19,19,19,19,19,19,16,17,16,17,16,19,19,19,19,5,0,0,0,0,0,0,0,0,6,19,19,19,19,19,19,19,19,19,19,19,19,19,19,19,19,19,19,19,19,19,19,19,19,19,16,17,16,17,16
19,19,19,19,19,19,19,19,19,19,19,19,19,19,19,16,17,16,17,16,19,19,19,17,19,17,19,17,19,17,19,17,19,17,19,19,16,19,19,19,19,19,19,19,19,19,19,19,19,19,19,17,16,17,16,17,19,19,19,19,5,4,0,4,0,0,4,0,4,6,19,19,19,19,19,19,19,19,19,19,19,19,19,19,19,19,19,19,19,19,19,19,19,19,19,17,16,17,16,17
19,19,19,19,19,19,19,19,19,19,19,19,19,19,19,17,16,17,16,17,19,19,19,16,13,16,19,16,13,16,19,16,13,16,19,19,17,19,19,19,19,19,19,19,19,19,19,19,19,19,19,16,17,16,17,16,19,19,19,19,5,0,0,0,0,0,0,0,0,6,19,19,19,19,19,19,19,19,19,19,19,19,19,19,19,19,19,19,19,19,19,19,19,19,19,16,17,16,17,16
19,19,19,19,19,19,19,19,19,19,19,19,19,19,19,16,17,16,17,16,19,19,19,17,19,17,19,17,19,17,19,17,19,17,19,19,19,19,19,19,19,19,19,19,19,19,19,19,19,19,19,17,16,17,16,17,19,19,19,19,5,0,0,0,0,0,0,0,0,6,19,19,19,19,19,19,19,19,19,19,19,19,19,19,19,19,19,19,19,19,19,19,19,19,19,17,16,17,16,17
19,19,19,19,19,19,19,19,19,19,19,19,19,19,19,17,16,17,16,17,19,19,19,19,19,19,19,19,19,19,19,19,19,19,19,19,19,19,19,19,19,19,19,19,19,19,19,19,19,19,19,16,17,16,17,16,19,19,19,19,5,3,0,4,0,0,4,0,4,6,19,19,19,19,19,19,19,19,19,19,19,19,19,19,19,19,19,19,19,19,19,19,19,19,19,16,17,16,17,16
19,19,19,19,19,19,19,19,19,19,19,19,19,19,19,16,17,16,17,16,19,19,19,19,14,19,19,19,19,19,19,19,14,19,19,19,19,19,19,19,19,19,19,19,19,19,19,19,19,19,19,17,16,17,16,17,19,19,19,19,5,0,2,0,0,0,0,1,0,6,19,19,19,19,19,19,19,19,19,19,19,19,19,19,19,19,19,19,19,19,19,19,19,19,19,17,16,17,16,17
19,19,19,19,19,19,19,19,19,19,19,19,19,19,19,17,16,17,16,17,19,19,19,19,15,19,19,19,19,19,19,19,15,19,19,19,19,19,19,19,19,19,19,19,19,19,19,19,19,19,19,16,17,16,17,16,19,19,19,19,19,19,19,19,19,19,19,19,19,19,19,19,19,19,19,19,19,19,19,19,19,19,19,19,19,19,19,19,19,19,19,19,19,19,19,16,17,16,17,16
19,19,19,19,19,19,19,19,19,19,19,19,19,19,19,16,17,16,17,16,19,19,19,12,19,12,19,19,19,19,19,12,19,12,19,19,19,19,19,19,16,19,19,19,19,19,19,19,19,19,19,17,16,17,16,17,19,19,19,19,19,19,19,19,19,19,19,19,19,19,19,19,19,19,19,19,19,19,19,19,19,19,19,19,19,19,19,19,19,19,19,19,19,19,19,17,16,17,16,17
19,19,19,19,19,19,19,19,19,19,19,19,19,19,19,17,16,17,16,17,19,19,19,19,19,19,19,19,19,19,19,19,19,19,19,19,19,19,19,19,17,19,19,19,19,19,19,19,16,19,19,16,17,16,17,16,19,19,19,19,19,19,19,19,19,19,19,19,19,19,19,19,19,19,19,19,19,19,19,19,19,19,19,19,19,19,19,19,19,19,19,19,19,19,19,16,17,16,17,16
19,19,19,19,19,19,19,19,19,19,19,19,19,19,19,16,17,16,17,16,19,19,19,19,19,16,19,16,19,16,19,16,19,19,19,19,19,19,19,19,19,19,19,19,19,19,19,19,17,19,19,17,19,17,19,17,19,19,19,19,19,19,19,19,19,19,19,19,19,19,19,19,19,19,19,19,19,19,19,19,19,19,19,19,19,19,19,19,19,19,19,19,19,19,19,17,19,17,19,17
19,19,19,19,19,19,19,19,19,19,19,19,19,19,19,17,19,17,19,17,19,19,19,19,19,17,19,17,19,17,19,17,19,19,19,19,19,19,19,19,19,19,19,19,19,19,19,19,19,19,19,19,19,19,19,19,19,19,19,19,19,19,19,19,19,19,19,19,19,19,19,19,19,19,19,19,19,19,19,19,19,19,19,19,19,19,19,19,19,19,19,19,19,19,19,19,19,19,19,19
19,19,19,19,19,19,19,19,19,19,19,19,19,19,19,19,19,19,19,19,19,19,19,19,19,16,19,16,19,16,19,16,19,19,19,19,19,19,19,19,19,19,19,19,19,19,19,19,19,19,19,19,19,19,19,19,19,19,19,19,19,19,19,19,19,19,19,19,19,19,19,19,19,19,19,19,19,19,19,19,19,19,19,19,19,19,16,19,16,19,16,19,19,19,19,19,19,19,19,19
19,19,19,19,16,19,16,19,16,19,19,19,19,19,19,19,19,19,19,19,19,19,19,19,19,17,19,17,19,17,19,17,19,19,19,19,19,19,19,19,19,19,19,19,19,19,19,19,19,19,19,19,19,19,19,19,19,19,19,19,19,19,19,19,19,19,19,19,19,19,19,19,19,19,19,19,19,19,19,19,19,19,19,19,19,19,17,16,17,16,17,19,19,19,19,19,19,19,19,19
19,19,19,19,17,16,17,16,17,19,19,19,19,19,19,19,19,19,19,19,19,19,19,19,19,16,19,16,19,16,19,16,19,19,19,19,19,19,19,19,19,19,19,19,19,19,19,19,19,19,19,19,19,19,19,19,19,19,19,19,19,19,19,19,19,19,19,19,19,19,19,19,19,19,19,19,19,19,19,19,19,19,19,19,19,19,16,17,16,17,16,19,19,19,19,19,19,19,19,19
19,19,19,19,16,17,16,17,16,19,19,19,19,19,19,19,19,19,19,19,19,19,19,19,19,17,19,17,19,17,19,17,19,19,19,19,19,19,19,19,19,19,19,19,19,19,19,19,19,19,19,19,19,19,19,19,19,19,19,19,19,19,19,19,19,19,19,19,19,19,19,19,19,19,19,19,19,19,19,19,19,19,19,19,19,19,17,16,17,16,17,19,19,19,19,19,19,19,19,19
19,19,19,19,17,16,17,16,17,19,19,19,19,19,19,19,19,19,19,19,19,19,19,19,19,16,19,16,19,16,19,16,19,19,19,19,19,19,19,19,19,19,19,19,19,19,19,19,19,19,19,19,19,19,19,19,19,19,19,19,19,19,19,19,19,19,19,19,19,19,19,19,19,19,19,19,19,19,19,19,19,19,19,19,19,19,16,17,16,17,16,19,19,19,19,19,19,19,19,19
19,19,19,19,16,17,16,17,16,19,19,19,19,19,19,19,19,19,19,19,19,19,19,19,19,17,19,17,19,17,19,17,19,19,19,19,19,19,19,19,19,19,19,19,19,19,19,19,19,19,19,19,19,19,19,19,19,19,19,19,19,19,19,19,19,19,19,19,19,19,19,19,19,19,19,19,19,19,19,19,19,19,19,19,19,19,17,16,17,16,17,19,19,19,19,19,19,19,19,19
19,19,19,19,17,16,17,16,17,19,19,19,19,19,19,19,19,19,19,19,19,19,19,19,19,16,19,16,19,16,19,16,19,19,19,19,19,19,19,19,19,19,19,19,19,19,19,19,19,19,19,19,19,19,19,19,19,19,19,19,19,19,19,19,19,19,19,19,19,19,19,19,19,19,19,19,19,19,19,19,19,19,19,19,19,19,16,17,16,17,16,19,19,19,19,19,19,19,19,19
19,19,19,19,16,17,16,17,16,19,19,19,19,19,19,19,19,19,19,19,19,19,19,19,19,17,19,17,19,17,19,17,19,19,19,19,19,19,19,19,19,19,19,19,19,19,19,19,19,19,19,19,19,19,19,19,19,19,19,19,19,19,19,19,19,19,19,19,19,19,19,19,19,19,19,19,19,19,19,19,19,19,19,19,19,19,17,16,17,16,17,19,19,19,19,19,19,19,19,19
19,19,19,19,17,16,17,16,17,19,19,19,19,19,19,19,19,19,19,19,19,19,19,19,19,16,19,16,19,16,19,16,19,19,19,19,19,19,19,19,19,19,19,19,19,19,19,19,19,19,19,19,19,19,19,19,19,19,19,19,19,19,19,19,19,19,19,19,19,19,19,19,19,19,19,19,19,19,19,19,19,19,19,19,19,19,16,17,16,17,16,19,19,19,19,19,19,19,19,19
19,19,19,19,16,17,16,17,16,19,19,19,19,19,19,19,19,19,19,19,19,19,19,19,19,17,19,17,19,17,19,17,19,19,19,19,19,19,19,19,19,19,19,19,19,19,19,19,19,19,19,19,19,19,19,19,19,19,19,19,19,19,19,19,19,19,19,19,19,19,19,19,19,19,19,19,19,19,19,19,19,19,19,19,19,19,17,16,17,16,17,19,19,19,19,19,19,19,19,19
19,19,19,19,17,16,17,16,17,19,19,19,19,19,19,19,19,19,19,19,19,19,19,19,19,19,19,19,19,19,19,19,19,19,19,19,19,19,19,19,19,19,19,19,19,19,19,19,19,19,19,19,19,19,19,19,19,19,19,19,19,19,19,19,19,19,19,19,19,19,19,19,19,19,19,19,19,19,19,19,19,19,19,19,19,19,16,17,16,17,16,19,19,19,19,19,19,19,19,19
19,19,19,19,16,17,16,17,16,19,19,19,19,19,19,19,19,19,19,19,19,19,19,19,19,19,19,19,19,19,19,19,19,19,19,19,19,19,19,19,19,19,19,19,19,19,19,19,19,19,19,19,19,19,19,19,19,19,19,19,19,19,19,19,19,19,19,19,19,19,19,19,19,19,19,19,19,19,19,19,19,19,19,19,19,19,17,16,17,16,17,19,19,19,19,19,19,19,19,19
19,19,19,19,17,19,17,19,17,19,19,19,19,19,19,19,19,19,19,19,19,19,19,19,19,19,19,19,19,19,19,19,19,19,19,19,19,19,19,19,19,19,19,19,19,19,19,19,19,19,19,19,19,19,19,19,19,19,19,19,19,19,19,19,19,19,19,19,19,19,19,19,19,19,19,19,19,19,19,19,19,19,19,19,19,19,19,19,19,19,19,19,19,19,19,19,19,19,19,19
19,19,19,19,19,19,19,19,19,19,19,19,19,19,19,19,19,19,19,19,19,19,19,19,19,19,19,19,19,19,19,19,19,19,19,19,19,19,19,19,19,19,19,19,19,19,19,19,19,19,19,19,19,19,19,19,19,19,19,19,19,19,19,19,19,19,19,19,19,19,19,19,19,19,19,19,19,19,19,19,19,19,19,19,19,19,19,19,19,19,19,19,19,19,19,19,19,19,19,19
19,19,19,19,19,19,19,19,19,19,19,19,19,19,19,19,19,19,19,19,19,19,19,19,19,19,19,19,19,19,19,19,19,19,19,19,19,19,19,19,19,19,19,19,19,19,19,19,19,19,19,19,19,19,19,19,19,19,19,19,19,19,19,19,19,19,19,19,19,19,19,19,19,19,19,19,19,19,19,19,19,19,19,19,19,19,19,19,19,19,19,19,19,19,19,19,19,19,19,19
19,19,19,19,19,19,19,19,19,19,19,19,19,19,19,19,19,19,19,19,19,19,19,19,19,19,19,19,19,19,19,19,19,19,19,19,16,19,16,19,16,19,16,19,19,16,19,16,19,16,19,19,19,19,19,19,19,19,19,19,19,19,19,19,19,19,19,19,19,19,19,19,19,19,19,19,19,19,19,19,19,19,19,19,19,19,19,19,19,19,19,19,19,19,19,19,19,19,19,19
19,19,19,19,19,19,19,19,19,19,19,19,19,19,19,19,19,19,19,19,19,19,19,19,19,19,19,19,19,19,19,19,19,19,19,19,17,19,17,19,17,19,17,19,19,17,19,17,19,17,19,19,19,19,19,19,19,19,19,19,19,19,19,19,19,19,19,19,19,19,19,19,19,19,19,19,19,19,19,19,19,19,19,19,19,19,19,19,19,19,19,19,19,19,19,19,19,19,19,19
19,19,19,19,19,19,19,19,19,19,19,19,19,19,19,19,19,19,19,19,19,19,19,19,19,19,19,19,19,19,19,19,19,19,19,19,16,19,16,19,16,19,16,19,19,16,19,16,19,16,19,19,19,19,19,19,19,19,19,19,19,19,19,19,19,20,29,19,19,19,19,19,19,19,19,19,20,29,19,19,19,19,19,19,19,19,19,19,19,19,19,19,19,19,19,19,19,19,19,19
19,19,19,19,19,19,19,19,19,19,19,19,19,19,19,19,19,19,19,19,19,19,19,19,19,19,19,19,19,19,19,19,19,19,19,19,17,19,17,19,17,19,17,19,19,17,19,17,19,17,19,19,19,19,19,19,19,19,19,19,19,19,19,20,21,22,27,28,29,19,19,19,19,19,20,21,22,27,28,29,19,19,19,19,19,19,19,19,19,19,19,19,19,19,19,19,19,19,19,19
19,19,19,19,19,19,19,19,19,19,19,19,19,19,19,19,19,19,19,19,19,19,19,19,19,19,19,19,19,19,19,19,19,19,19,19,16,19,16,19,16,19,16,19,19,16,19,16,19,16,19,19,19,19,19,19,19,19,19,19,19,20,21,22,23,24,25,26,27,28,29,19,20,21,22,23,24,25,26,27,28,29,19,19,19,19,19,19,19,19,19,19,19,19,19,19,19,19,19,19
19,19,19,19,19,19,19,19,19,19,19,19,19,20,29,19,19,19,19,19,19,19,19,19,19,19,19,19,19,19,19,19,19,19,19,19,17,19,17,19,17,19,17,19,19,17,19,17,19,17,19,19,19,19,19,19,19,19,19,19,19,23,24,0,0,0,0,0,0,25,26,19,23,24,0,0,0,0,0,0,25,26,19,19,19,19,19,19,19,19,19,19,19,19,19,19,19,19,19,19
19,19,19,19,19,19,19,19,19,19,19,20,21,22,27,28,29,19,19,19,19,19,19,19,19,19,19,19,19,19,19,19,19,19,19,19,16,19,16,19,16,19,16,19,19,16,19,16,19,16,19,19,19,19,19,19,19,19,19,19,19,5,4,0,4,0,0,4,0,4,6,19,5,4,0,4,0,0,4,0,4,6,19,19,19,19,19,19,19,19,19,19,19,19,19,19,19,19,19,19
19,19,19,19,19,19,19,19,19,20,21,22,23,24,25,26,27,28,29,19,19,19,19,19,19,19,19,19,19,19,19,19,19,19,19,19,17,19,17,19,17,19,17,19,19,17,19,17,19,17,19,19,19,19,19,19,19,19,19,19,19,5,0,0,0,0,0,0,0,0,6,19,5,0,0,0,0,0,0,0,0,6,19,19,19,19,19,19,19,19,19,19,19,19,19,19,19,19,19,19
19,19,19,19,19,19,19,19,19,23,24,0,0,0,0,0,0,25,26,19,19,19,19,19,19,19,19,19,19,19,19,19,19,19,19,19,16,19,16,19,16,19,16,19,19,16,19,16,19,16,19,19,19,19,19,19,19,19,19,19,19,5,4,0,4,0,0,4,0,4,6,19,5,4,0,4,0,0,4,0,4,6,19,19,19,19,19,19,19,19,19,19,19,19,19,19,19,19,19,19
19,19,19,19,19,19,19,19,19,5,4,0,4,0,0,4,0,4,6,19,19,19,19,19,19,19,19,19,19,19,19,19,19,19,19,19,17,19,17,19,17,19,17,19,19,17,19,17,19,17,19,19,19,19,19,19,19,19,19,19,19,5,0,0,0,0,0,0,0,0,6,19,5,0,0,0,0,0,0,0,0,6,19,19,19,19,19,19,19,19,19,19,19,19,19,19,19,19,19,19
19,19,19,19,19,19,19,19,19,5,0,0,0,0,0,0,0,0,6,19,19,19,19,19,19,19,19,19,19,19,19,19,19,19,19,19,16,19,16,19,16,19,16,19,19,16,19,16,19,16,19,19,19,19,19,19,19,19,19,19,19,5,0,0,0,0,0,0,0,0,6,19,5,0,0,0,0,0,0,0,0,6,19,19,19,19,19,19,19,19,19,19,19,19,16,19,16,19,16,19
19,19,19,19,19,19,19,19,19,5,4,0,4,0,0,4,0,4,6,19,19,19,19,19,19,19,19,19,19,19,19,19,19,19,19,19,17,19,17,19,17,19,17,19,19,17,19,17,19,17,19,19,19,19,19,19,19,19,19,19,19,5,3,0,4,0,0,4,0,4,6,19,5,3,0,4,0,0,4,0,4,6,19,19,19,19,19,19,19,19,19,19,19,19,17,16,17,16,17,19
19,19,19,19,19,19,19,19,19,5,0,0,0,0,0,0,0,0,6,19,19,19,19,19,19,19,19,19,19,19,19,19,19,19,19,19,16,19,16,19,16,19,16,19,19,16,19,16,19,16,19,19,19,19,19,19,19,19,19,19,19,5,0,2,0,0,0,0,1,0,6,19,5,0,2,0,0,0,0,1,0,6,19,19,19,19,19,19,19,19,19,19,19,19,16,17,16,17,16,19
19,19,19,19,19,19,19,19,19,5,0,0,0,0,0,0,0,0,6,19,19,19,19,19,19,19,19,19,19,19,19,19,19,19,19,19,17,19,17,19,17,19,17,19,19,17,19,17,19,17,19,19,19,19,19,19,19,19,19,19,19,19,19,19,19,19,19,19,19,19,19,19,19,19,19,19,19,19,19,19,19,19,19,19,19,19,19,19,19,19,19,19,19,19,17,16,17,16,17,19
19,19,19,19,19,19,19,19,19,5,3,0,4,0,0,4,0,4,6,19,19,19,19,19,19,19,19,19,19,19,19,19,19,19,19,19,16,19,16,19,16,19,16,19,19,16,19,16,19,16,19,19,19,19,19,19,19,19,19,19,19,19,19,19,19,19,19,19,19,19,19,19,19,19,19,19,19,19,19,19,19,19,19,19,19,19,19,19,19,19,19,19,19,19,16,17,16,17,16,19
19,19,19,19,19,19,19,19,19,5,0,2,0,0,0,0,1,0,6,19,19,19,19,19,19,19,19,19,19,19,19,19,19,19,19,19,17,19,17,19,17,19,17,19,19,17,19,17,19,17,19,19,19,19,19,19,19,19,19,19,19,19,19,19,19,19,19,19,19,19,19,19,19,19,19,19,19,19,19,19,19,19,19,19,19,19,19,19,19,19,19,19,19,19,17,16,17,16,17,19
19,19,19,19,19,19,19,19,19,19,19,19,19,19,19,19,19,19,19,19,19,19,19,19,19,19,19,19,19,19,19,19,19,19,19,19,19,19,19,19,19,19,19,19,19,19,19,19,19,19,19,19,19,19,19,19,19,19,19,19,19,19,19,19,19,19,19,19,19,19,19,19,19,19,19,19,19,19,19,19,19,19,19,19,19,19,19,19,19,19,19,19,19,19,16,17,16,17,16,19
19,19,19,19,19,19,19,19,19,19,19,19,19,19,19,19,19,19,19,19,19,19,19,19,19,19,19,19,19,19,19,19,19,19,19,19,19,19,19,19,19,19,19,19,19,19,19,19,19,19,19,19,19,19,19,19,19,19,19,19,19,19,19,19,19,19,19,19,19,19,19,19,19,19,19,19,19,19,19,19,19,19,19,19,19,19,19,19,19,19,19,19,19,19,17,16,17,16,17,19
19,19,19,19,19,19,19,19,19,19,19,19,19,19,19,19,19,19,19,19,19,19,16,19,16,19,19,19,19,19,19,19,19,19,19,19,19,19,19,19,19,19,19,19,19,19,19,19,19,19,19,19,19,19,19,19,19,19,19,19,19,19,19,19,19,19,19,19,19,19,19,19,19,19,19,19,19,19,19,19,19,19,19,19,19,19,19,19,19,19,19,19,19,19,16,17,16,17,16,19
19,19,19,19,19,19,19,19,19,19,19,19,19,19,19,19,19,19,19,19,19,19,17,19,17,19,19,19,19,19,19,19,19,16,19,16,19,19,19,19,19,19,19,19,19,19,19,19,19,19,19,19,19,19,19,19,19,19,19,19,19,19,19,19,19,19,19,19,19,19,19,19,19,19,19,19,19,19,19,19,19,19,19,19,19,19,19,19,19,19,19,19,19,19,17,16,17,16,17,19
19,19,19,19,19,19,19,19,19,19,19,19,19,19,19,16,19,16,19,16,19,19,16,19,16,19,19,19,19,19,19,19,16,17,16,17,16,19,19,19,19,19,19,19,19,19,19,19,19,19,19,19,19,19,19,19,19,19,19,19,19,19,19,19,20,29,19,19,19,19,19,19,19,19,19,19,19,20,29,19,19,19,19,19,19,19,19,19,19,19,19,19,19,19,16,17,16,17,16,19
19,19,19,19,19,19,19,19,19,19,19,19,19,19,19,17,19,17,19,17,19,19,17,19,17,19,19,19,19,19,19,19,17,16,17,16,17,19,19,19,19,19,19,19,19,19,19,19,19,19,19,19,19,19,19,19,19,19,19,19,19,19,20,21,22,27,28,29,19,19,19,19,19,19,19,20,21,22,27,28,29,19,19,19,19,19,19,19,19,19,19,19,19,19,17,16,17,16,17,19
19,19,19,19,19,19,19,19,19,19,19,19,19,19,19,16,19,16,19,16,19,19,16,19,16,19,19,19,19,19,19,19,16,17,16,17,16,19,19,19,19,19,19,19,19,19,19,19,19,19,19,19,19,19,19,19,19,19,19,19,20,21,22,23,24,25,26,27,28,29,19,19,19,20,21,22,23,24,25,26,27,28,29,19,19,19,19,19,19,19,19,19,19,19,19,19,19,19,19,19
19,19,19,19,19,19,19,19,19,19,19,19,19,19,19,17,19,17,19,17,19,19,17,19,17,19,19,19,19,19,19,19,17,16,17,16,17,19,19,19,19,19,19,19,19,19,19,19,19,19,19,19,19,19,19,19,19,19,19,19,23,24,0,0,0,0,0,0,25,26,19,19,19,23,24,0,0,0,0,0,0,25,26,19,19,19,19,19,19,19,19,19,19,19,19,19,19,19,19,19
19,19,19,19,19,19,19,19,19,19,19,19,19,19,19,16,19,16,19,16,19,19,16,19,16,19,19,19,19,19,19,19,16,17,16,17,16,19,19,19,19,19,19,19,19,19,19,19,19,19,19,19,19,19,19,19,19,19,19,19,5,4,0,4,0,0,4,0,4,6,19,19,19,5,4,0,4,0,0,4,0,4,6,19,19,19,19,19,19,19,19,19,19,19,19,19,19,19,19,19
19,19,19,19,19,19,19,19,19,19,19,19,19,19,19,17,19,17,19,17,19,19,17,19,17,19,19,19,19,19,19,19,17,16,17,16,17,19,19,19,19,19,19,19,19,19,19,19,19,19,19,19,19,19,19,19,19,19,19,19,5,0,0,0,0,0,0,0,0,6,19,19,19,5,0,0,0,0,0,0,0,0,6,19,19,19,19,19,19,19,19,19,19,19,19,19,19,19,19,19
19,19,19,19,19,19,19,19,19,19,19,19,19,19,19,16,19,16,19,16,19,19,16,19,16,19,19,19,19,19,19,19,16,17,16,17,16,19,19,19,19,19,19,19,19,19,19,19,19,19,19,19,19,19,19,19,19,19,19,19,5,4,0,4,0,0,4,0,4,6,19,19,19,5,4,0,4,0,0,4,0,4,6,19,19,19,19,19,19,19,19,19,19,19,19,19,19,19,19,19
19,19,19,19,19,19,19,19,19,19,19,19,19,19,19,17,19,17,19,17,19,19,17,19,17,19,19,19,19,19,19,19,17,16,17,16,17,19,19,19,19,19,19,19,19,19,19,19,19,19,19,19,19,19,19,19,19,19,19,19,5,0,0,0,0,0,0,0,0,6,19,19,19,5,0,0,0,0,0,0,0,0,6,19,19,19,19,19,19,19,19,19,19,19,19,19,19,19,19,19
19,19,19,19,19,19,19,19,19,19,19,19,19,19,19,16,19,16,19,16,19,19,16,19,16,19,19,19,19,19,19,19,16,17,16,17,16,19,19,19,19,19,19,19,19,19,19,19,19,19,19,19,19,19,19,19,19,19,19,19,5,0,0,0,0,0,0,0,0,6,19,19,19,5,0,0,0,0,0,0,0,0,6,19,19,19,19,19,19,19,19,19,19,19,19,19,19,19,19,19
19,19,19,19,19,19,19,19,19,19,19,19,19,19,19,17,19,17,19,17,19,19,17,19,17,19,19,19,19,19,19,19,17,16,17,16,17,19,19,19,19,19,19,19,19,19,19,19,19,19,19,19,19,19,19,19,19,19,19,19,5,3,0,4,0,0,4,0,4,6,19,19,19,5,3,0,4,0,0,4,0,4,6,19,19,19,19,19,19,19,19,19,19,19,19,19,19,19,19,19
19,19,19,19,19,19,19,19,19,19,19,19,19,19,19,16,19,16,19,16,19,19,19,19,19,19,19,19,19,19,19,19,16,17,16,17,16,19,19,19,19,19,19,19,19,19,19,19,19,19,19,19,19,19,19,19,19,19,19,19,5,0,2,0,0,0,0,1,0,6,19,19,19,5,0,2,0,0,0,0,1,0,6,19,19,19,19,19,19,19,19,19,19,19,19,19,19,19,19,19
19,19,19,19,19,19,19,19,19,19,19,19,19,19,19,17,19,17,19,17,19,19,19,19,19,19,19,19,19,19,19,19,17,16,17,16,17,19,19,19,19,19,19,19,19,19,19,19,19,19,19,19,19,19,19,19,19,19,19,19,19,19,19,19,19,19,19,19,19,19,19,19,19,19,19,19,19,19,19,19,19,19,19,19,19,19,19,19,19,19,19,19,19,19,19,19,19,19,19,19
19,19,19,19,19,19,19,19,19,19,19,19,19,19,19,16,19,16,19,16,19,19,19,19,19,19,19,19,19,19,19,19,16,17,16,17,16,19,19,19,19,19,19,19,19,19,19,19,19,19,19,19,19,19,19,19,19,19,19,19,19,19,19,19,19,19,19,19,19,19,19,19,19,19,19,19,19,19,19,19,19,19,19,19,19,19,19,19,19,19,19,19,19,19,19,19,19,19,19,19
19,19,19,19,19,19,19,19,19,19,19,19,19,19,19,17,19,17,19,17,19,19,19,19,19,19,19,19,19,19,19,19,17,16,17,16,17,19,19,19,19,19,19,19,19,19,19,19,19,19,19,19,19,19,19,19,19,19,19,19,19,19,19,19,19,19,19,19,19,19,19,19,19,19,19,19,19,19,19,19,19,19,19,19,19,19,19,19,19,19,19,19,19,16,19,16,19,16,19,19
19,19,19,19,19,19,19,19,19,19,19,19,19,19,19,19,19,19,19,19,19,19,19,19,19,19,19,19,19,19,19,19,16,17,16,17,16,19,19,19,19,19,19,19,19,19,19,19,19,19,19,19,19,19,19,19,19,19,19,19,19,19,19,19,19,19,19,19,19,19,19,19,19,19,19,19,19,19,19,19,19,19,19,19,19,19,19,19,19,19,19,19,19,16,19,16,19,16,19,19
19,19,19,19,19,19,19,19,19,19,19,19,19,19,19,19,19,19,19,19,19,19,19,19,19,19,19,19,19,19,19,19,17,19,17,19,17,19,19,19,19,19,19,19,19,19,19,19,19,19,19,19,19,19,19,19,19,19,19,19,19,19,19,19,19,19,19,19,19,19,19,19,19,19,19,19,19,19,19,19,19,19,19,19,19,19,19,19,19,19,19,19,19,17,16,17,16,17,19,19
19,19,19,19,19,19,19,19,19,19,19,19,19,19,19,19,19,19,19,19,19,19,19,19,19,19,19,19,19,19,19,19,19,19,19,19,19,19,19,19,19,19,19,19,19,19,19,19,19,19,19,19,19,19,19,19,19,19,19,19,19,19,19,19,19,19,19,19,19,19,19,19,19,19,19,19,19,19,19,19,19,19,19,19,19,19,19,19,19,19,19,19,19,16,17,16,17,16,19,19
19,19,19,19,19,19,19,19,19,19,19,19,19,19,19,19,19,19,19,19,19,19,19,19,19,19,19,19,19,19,19,19,19,19,19,19,19,19,19,19,19,19,19,19,19,19,19,19,19,19,19,19,19,19,19,19,19,19,19,19,19,19,19,19,19,19,19,19,19,19,19,19,19,19,19,19,19,19,19,19,19,19,19,19,19,19,19,19,19,19,19,19,19,17,16,17,16,17,19,19
19,19,19,19,19,19,19,19,19,19,19,19,19,19,19,19,19,19,19,19,19,19,19,19,19,19,19,19,19,19,19,19,19,19,19,19,19,19,19,19,19,19,19,19,19,19,19,19,19,19,19,19,19,19,19,19,19,19,19,19,19,19,19,19,19,19,19,19,19,19,19,19,19,19,19,19,19,19,19,19,19,19,19,19,19,19,19,19,19,19,19,19,19,16,17,16,17,16,19,19
19,19,19,19,19,16,17,16,17,16,19,19,19,19,19,19,19,19,19,19,19,19,19,19,19,19,19,19,19,19,19,19,19,19,19,19,19,19,19,19,19,19,19,19,19,19,19,19,19,19,19,19,19,19,19,19,19,19,19,19,19,19,19,19,19,19,19,19,19,19,19,19,19,19,19,19,19,19,19,19,19,19,19,19,19,19,19,19,19,19,19,19,19,17,16,17,16,17,19,19
19,19,19,19,19,17,16,17,16,17,19,19,19,19,19,19,19,19,19,19,19,19,19,19,19,19,19,19,19,19,19,19,19,19,19,19,19,19,19,19,19,19,19,19,19,19,19,19,19,19,19,19,19,19,19,19,19,19,19,19,19,19,19,19,19,19,19,19,19,19,19,19,19,19,19,19,19,19,19,19,19,19,19,19,19,19,19,19,19,19,19,19,19,16,17,16,17,16,19,19
19,19,19,19,19,16,17,16,17,16,19,19,19,19,19,19,19,19,19,19,19,19,19,19,19,19,19,19,19,19,19,19,19,19,19,19,19,19,19,19,19,19,19,19,19,19,19,19,19,19,19,19,19,19,19,19,19,19,19,19,19,19,19,19,19,19,19,19,19,19,19,19,19,19,19,19,19,19,19,19,19,19,19,19,19,19,19,19,19,19,19,19,19,17,16,17,16,17,19,19
19,19,19,19,19,17,16,17,16,17,19,19,19,19,19,19,19,19,19,19,19,19,19,19,19,19,19,19,19,19,19,19,19,19,19,19,19,19,19,19,19,19,19,19,19,19,19,19,19,19,16,19,16,19,16,19,19,19,19,19,19,19,19,19,19,19,19,19,19,19,19,19,19,19,19,19,19,19,19,19,19,19,19,19,19,19,19,19,19,19,19,19,19,16,17,16,17,16,19,19
19,19,19,19,19,16,17,16,17,16,19,19,19,19,19,19,19,19,19,19,19,19,19,19,19,19,19,19,19,19,19,16,19,16,19,16,19,19,19,19,19,19,19,19,19,19,19,19,19,19,17,16,17,16,17,19,19,19,19,19,19,19,19,19,19,19,19,19,19,19,19,19,19,19,19,19,19,19,19,19,19,19,19,19,19,19,19,19,19,19,19,19,19,17,16,17,16,17,19,19
19,19,19,19,19,17,16,17,16,17,19,19,19,19,19,19,19,19,19,19,19,19,19,19,19,19,19,19,19,19,19,17,16,17,16,17,19,19,19,19,19,19,19,19,19,19,19,19,19,19,16,17,16,17,16,19,19,19,19,19,19,19,19,19,19,19,19,19,19,19,19,19,19,19,19,19,19,19,19,19,16,19,16,19,16,16,19,19,19,19,19,19,19,16,17,16,17,16,19,19
19,19,19,19,19,16,17,16,17,16,19,19,19,19,19,19,19,19,19,19,19,19,19,19,19,19,19,19,19,19,19,16,17,16,17,16,19,19,19,19,19,19,19,19,19,19,19,19,19,19,17,16,17,16,17,19,19,19,19,19,19,19,19,19,19,19,19,19,19,16,19,16,19,16,19,19,19,19,19,19,17,16,17,16,17,17,19,19,19,19,19,19,19,17,16,17,16,17,19,19
19,19,19,19,19,17,16,17,16,17,19,19,19,19,19,19,19,19,19,19,19,19,19,19,19,19,19,19,19,19,19,17,16,17,16,17,19,19,19,19,19,19,19,19,19,19,19,19,19,19,16,17,16,17,16,19,19,19,19,19,19,19,19,19,19,19,19,19,19,17,16,17,16,17,19,19,19,19,19,19,16,17,16,17,16,16,19,19,19,19,19,19,19,19,19,19,19,19,19,19
19,19,19,19,19,16,17,16,17,16,19,19,19,19,19,19,19,19,19,19,19,19,19,19,19,19,19,19,19,19,19,16,17,16,17,16,19,19,19,19,19,19,19,19,19,19,19,19,19,19,17,16,17,16,17,19,19,19,19,19,19,16,19,16,19,16,19,19,19,16,17,16,17,16,19,19,19,19,19,19,17,16,17,16,17,17,19,19,19,19,19,19,19,19,19,19,19,19,19,19
19,19,19,19,19,17,16,17,16,17,19,19,19,19,19,19,19,19,19,19,19,19,19,19,19,19,19,19,19,19,19,17,16,17,16,17,19,19,19,19,19,19,19,19,19,19,19,19,19,19,16,17,16,17,16,19,19,19,19,19,16,17,16,17,16,17,19,19,19,17,16,17,16,17,19,19,19,19,19,19,16,17,16,17,16,16,19,19,19,19,19,19,19,19,19,19,19,19,19,19
19,19,19,19,19,16,17,16,17,16,19,19,19,19,19,19,19,19,19,19,19,19,19,19,19,19,19,19,19,19,19,16,17,16,17,16,19,19,19,19,19,19,19,19,19,19,19,19,19,19,17,16,17,16,17,19,19,19,19,19,17,16,17,16,17,16,19,19,19,16,17,16,17,16,19,19,19,19,19,19,17,16,17,16,17,17,19,19,19,19,19,19,19,19,19,19,19,19,19,19
